…
    /**************************************************************************************************************************/
    /*                                                                                                                        */
    /* R                                                                                                                      */
    /*                                                                                                                        */
    /* The WPS System                                                                                                         */
    /*                                                                                                                        */
    /* # A tibble: 24 x 3                                                                                                     */
    /*    SITE    DATE       n_visit                                                                                          */
    /*    <chr>   <chr>      <chr>                                                                                            */
    /*  1 tryon   2023-03-31 visit_1                                                                                          */
    /*  2 phelps  2023-03-31 visit_1                                                                                          */
    /*  3 phelps  2023-04-05 visit_2                                                                                          */
    /*  4 admin   2023-04-20 visit_1                                                                                          */
    /*  5 wood_la 2023-05-03 visit_1                                                                                          */
    /*  6 admin   2023-05-10 visit_2                                                                                          */
    /*  7 phelps  2023-05-11 visit_3                                                                                          */
    /*  8 wood_la 2023-05-15 visit_2                                                                                          */
    /*  9 wood_la 2023-05-16 visit_3                                                                                          */
    /* 10 rv      2023-05-22 visit_1                                                                                          */
    /* # i 14 more rows                                                                                                       */
…
